4.1 4.1 4.1 4.1 4.1 4.1 4.1 4.1 4.1 4.1 4.1 4.1 4.1 4.1 4.1 4.1 4.1 4.1 4.1 4.1 

2. Назначить адреса интерфейсам маршрутизаторов:
AR1 - ge0/0/0 192.168.0.1/30
AR2 - ge0/0/1 192.168.0.2/30
      ge0/0/0 192.168.0.5/30
AR3 - ge0/0/1 192.168.0.6/30
      ge0/0/0 192.168.0.9/30
AR4 - ge0/0/1 192.168.0.10/30

3. Задать на AR1 и AR4 IPv4 default route:
[AR1]ip route-static 0.0.0.0 0 192.168.0.2
[AR4]ip route-static 0.0.0.0 0 192.168.0.9

4. Настроить статические маршруты на AR2, AR3 до всех неприсоединенных сетей:
[AR2]ip route-static 192.168.0.8 30 192.168.0.6
[AR3]ip route-static 192.168.0.0 30 192.168.0.5

5. убедиться, что все интерфейсы маршрутизаторов доступны с AR1

6. Выполнить просмотр маршрутных таблиц на маршрутизаторах AR1-AR4 и обратить внимание на различия в таблицах.
display ip routing-table

7. Выполнить трассировку маршрута с R1 до R4
[AR1]tracert 192.168.0.10




 4.2 4.2 4.2 4.2 4.2 4.2 4.2 4.2 4.2 4.2 4.2 4.2 4.2 4.2 4.2 4.2 4.2 4.2 4.2 
1. Топология совпадает с предыдущим упражнением.

2. Назначить адреса интерфейсам маршрутизаторов:
AR1 - ge0/0/0 3000::1/64
AR2 - ge0/0/1 3000::2/64
      ge0/0/0 3001::1/64
AR3 - ge0/0/1 3001::2/64
      ge0/0/0 3002::1/64
AR4 - ge0/0/1 3002::2/64

3. Задать на AR1 и AR4 IPv6 default route:
[AR1]ipv6 route-static :: 0 3000::2
[AR4]ipv6 route-static :: 0 3002::1

4. Настроить статические маршруты на AR2, AR3 до всех неприсоединенных сетей:
[AR2]ipv6 route-static 3002::0 64 3001::2
[AR3]ipv6 route-static 3000::0 64 3001::1

5. убедиться, что все интерфейсы маршрутизаторов доступны с AR1

6. Выполнить просмотр маршрутных таблиц на маршрутизаторах AR1-AR3 и обратить внимание на различия в таблицах.
display ipv6 routing-table

7. Выполнить трассировку маршрута с R1 до R4
[AR1]tracert ipv6 3002::2






5.1



2. Назначить адреса интерфейсам маршрутизаторов:
AR1 - ge0/0/0 192.168.0.1/30
AR2 - ge0/0/1 192.168.0.2/30
      ge0/0/0 192.168.0.5/30
AR3 - ge0/0/1 192.168.0.6/30
      ge0/0/0 192.168.0.9/30
AR4 - ge0/0/1 192.168.0.10/30

3. Задать на AR1 и AR4 IPv4 default route:
[AR1]ip route-static 0.0.0.0 0 192.168.0.2
[AR4]ip route-static 0.0.0.0 0 192.168.0.9

4. Настроить статические маршруты на AR2, AR3 до всех неприсоединенных сетей:
[AR2]ip route-static 192.168.0.8 30 192.168.0.6
[AR3]ip route-static 192.168.0.0 30 192.168.0.5

5. убедиться, что все интерфейсы маршрутизаторов доступны с AR1

6. Выполнить просмотр маршрутных таблиц на маршрутизаторах AR1-AR4 и обратить внимание на различия в таблицах.
display ip routing-table

7. Выполнить трассировку маршрута с R1 до R4
[AR1]tracert 192.168.0.10

5.2 5.2 5.2 5.2

2. Настроить адреса интерфейсам Ge0/0/0 маршрутизаторов (направленных навстречу друг к другу).
Сеть - 3100::/64

3. Убедиться, что пакеты между маршрутизаторами проходят.

4. На R1 создать 3 петлевых (loopback) интерфейса
и присвоить им адреса (обратите внимание, они принадлежат разным сетям):
loopback1 3201::1/64
loopback2 3202::1/64
loopback3 3203::1/64

5.  На R2 создать 3 петлевых (loopback) интерфейса
и присвоить им адреса (обратите внимание, они принадлежат разным сетям):
loopback1 3301::1/64
loopback2 3302::1/64
loopback3 3303::1/64

6. Просмотреть таблицу маршрутизации на каждом маршрутизаторе и убедиться, что сети, соответствующие всем интерфейсам маршрутизатора (включая петлевые), присутствуют в таблице маршрутизации и обозначены как присоединенные.

7. На AR1:
- создать процесс RIPng: 
[Huawei]ripng 1

- указать интерфейсы для работы с RIPng (1 здесь - номер процесса маршрутизации, должен быть уникален для маршрутизатора. 
Интерфейсы, связанные с разными процессами маршрутизации не смешивают маршрутную информацию):

[Huawei]interface GigabitEthernet0/0/0
[Huawei-GigabitEthernet0/0/0]ripng 1 enable

[Huawei]interface loopback 1
[Huawei-LoopBack1]ripng 1 enable

[Huawei]int loopback 2
[Huawei-LoopBack2]ripng 1 enable

[Huawei]int loopback 3
[Huawei-LoopBack3]ripng 1 enable

8. Повторить пункт 7 на маршрутизаторе R2, анонсируя все его присоединенные сети.

9. Выполнить просмотр таблиц маршрутизации и RIP database на маршрутизаторах.
display ipv6 routing-table
display ripng 1 database

- Убедиться, что в ней присутствую все использованные в упражнении сети.
- Сети полученные от соседнего маршрутизатора с использованием протокола RIP, соответствующим образом отмечены. 
- Обратить внимание метрику маршрутов до сетей, информация о которых получена от соседнего маршрутизатора.

10. Выполнить захват пакетов на линке между маршрутизаторами и ознакомится с содержимым пакетов RIP-протокола.
- обратить внимание на МАС и IP адреса отправителя и получателя RIPng пакетов. Какого они типа?
- обратить внимание на то, как и какие сети анонсируются


6.1 6.1 6.1 6.1 6.1 6.1 6.1 6.1 6.1 6.1 6.1 6.1 6.1 6.1 

2. Назначить адреса интерфейсам роутеров:
AR1 - Ge0/0/0 10.0.0.10/24 
AR2 - Ge0/0/0 192.168.0.2/24 Ge0/0/1 10.0.0.2/24
AR3 - Ge0/0/0 192.168.0.3/24 Ge0/0/1 10.0.0.3/24

3. Назначить адрес узлу РС1 (обратите внимание - адрес шлюза пока никому не назначен)
РС1 - 192.168.0.10/24
default gateway - 192.168.0.1

4. На АR1 настроить статический маршрут в сеть 192.168.0.0/24 через 10.0.0.1 (этот адрес тоже пока в сети отсутствует)

5. Проверить связность сети в пределах сетей 192.168.0.0/24 и 10.0.0.0/24
(адреса 192.168.0.1 и 10.0.0.1 пока недоступны, адреса из "не своей" сети - тоже)

6. На АR2 в режиме настройки интерфейса Ge0/0/0 создать vrrp группу 1 и присвоить ей адрес:
[Huawei-GigabitEthernet0/0/0]vrrp vrid 1 virtual-ip 192.168.0.1

7. выполнить просмотр состояния VRRP:
display vrrp brief 
display vrrp 

- какая VRRP роль у AR2?
- каков приоритет и IP у AR2?
- почему роль именно такая?

8. Повторить на интерфейсе Ge0/0/0 АR3 пункт 6.

9. Повторить пункт 7 на AR3.

10. C РС1 выполнить команду ping для адресов:
- 192.168.0.1
- 10.0.0.2
- 10.0.0.3
(все должны быть доступны)

- обратите внимание на МАС адрес, соответствующий адресу 192.168.0.1 в ARP кэше РС1
- почему он такой? какого он типа?
- есть ли МАС адреса для 10.0.0.[2-3] адресов?
- почему?

11. На AR2 и AR3 на интерфейсах Ge0/0/1 выполнить настройку группы vrrp 2 и адреса 10.0.0.1

12. Выполнить на R2 или R3 просмотр vrrp групп (повторить пункт 7).

13. Проверить прохождение пакетов с PC1 до R1 (с помощью команды ping)

14. Выполнить трассировку пакетов с PC1 до R1:
trace 10.0.0.10

- Через какой маршрутизатор идут пакеты до R1?

15. Отключить на маршрутизаторе, чей интерфейс Ge0/0/0 является Master в VRRP-группе с адресом 192.168.0.1, интерфейс Ge0/0/1.
(при этом VRRP группа 1 сохранит работоспособность, а в группае 2 роль Master должна переути другому маршрутизатору)
[Huawei-GigabitEthernet0/0/1]shutdown

16. повторить пункты 12, 13 и 14.
- AR1 достижим?
- каким маршрутом ICMP пакеты уходят с РС1?
- почему нет связности? (выполните просмотр таблицы маршрутизации маршрутизатора с отключенным линком)

17. Настроить на AR2 и AR3 динамическую маршрутизацию (RIP)

18. повторить пункты 12, 13 и 14

19. В первой VRRP группе на маршрутизаторе, имеющем роль Backup, изменить приоритет:
[Huawei-GigabitEthernet0/0/0]vrrp vrid 1 priority 150

- что произошло?
- почему?

20. Изменить приоритет на 50
- что произошло?
- почему?

21. Выключить Preempt-mode:
[Huawei-GigabitEthernet0/0/0]vrrp vrid 1 preempt-mode disable 

- снова поднять приоритет до 150
- что произошло?
- почему?


6.2 6.2 6.2 6.2 6.2 6.2 6.2 6.2 6.2 6.2



2. Назначить адреса интерфейсам роутеров:
AR1 - 	Ge0/0/0 2001::1/64 
	Ge0/0/1 2002::1/64
	Lo0	3000::1/64 
AR2 - 	Ge0/0/0 2001::2/64 
	Ge0/0/1 2003::2/64
AR3 - 	Ge0/0/0 2002::2/64 
	Ge0/0/1 2003::3/64

3. Настроить между маршрутизаторами RIPng маршрутизацию.
- в результате на всех трех маршрутизаторах будут присутствовать все четыре сети,
- до неприсоединенной сети(у каждого маршрутизатора - своя) - на каждом маршрутизаторе по 2 маршрута

4. На AR2 и AR3 настроить VRRP (обратите внимание, VIP cначала должен быть настроен как link-local адрес - с соответствующим префиксом)
Далее, при необзодимости, можно настроить еще и обычный VIP:
[Huawei-GigabitEthernet0/0/1]vrrp6 vrid 1 virtual-ip fe80::1 link-local 

5. Выполнить просмотр состояния группы:
display vrrp6 
display vrrp6 brief 
- какой маршрутизатор активный?

6. Выполнить на интерфейсе Еth0/0/1 коммутатора перехват NDP трафика (ICMPv6)
- какой(какие) префиксы объявляются?
- какой адрес отправителя используется в RA сообщениях?
- почему?

7. Назначить на AR2 и AR3 в vrrp6 группе 1 VIP из сети 2003::.64:
[Huawei-GigabitEthernet0/0/1]vrrp6 vrid 1 virtual-ip 2003::1

8. Повторить пункт 6.

9. Настроить на AR4 Gi0/0/0 адрес 2003::10/64 и дефолтный шлюз 2003::1 (VIP VRRP6 группы)

10. Выполнить трассировку маршрута с AR4 до 3000::1
- обратить внимание на промежуточные узлы (и  их адреса)
- c помощью wireshark определить путь следования пакетов 

11. Отключить на маршрутизаторе, активном в группе (п.5) интерфейс, направленный в сеть 2003::/64

12. Повторить пункт 10.







7.1 7.1 7.1 7.1 7.1 7.1 7.1 7.1 7.1 7.1 




2. Присвоить интерфейсам маршрутизаторов AR1 и AR2 адреса, указанные на рисунке.

3. На AR1 создать 3 петлевых интерфейса, присвоить им адреса, указанные на рисунке.

4. Проверить связность сети на участке между маршрутизаторами AR1 и AR2.

5. Убедиться, что с AR2 сети 172.16.х.х недоступны.

6. Настройка OSPF маршрутизации в магистральной зоне:
- на AR1 включить процесс OSPF маршрутизации (1) и присвоить AR1 идентификатор:
[Huawei]ospf 1 router-id 1.1.1.1 

- на AR1 добавить сети, принадлежащие магистральной зоне (обратить внимание - используется обратная маска):
[Huawei-ospf-1]area 0
[Huawei-ospf-1-area-0.0.0.0]network 172.16.0.0 0.0.0.255
[Huawei-ospf-1-area-0.0.0.0]network 172.16.1.0 0.0.0.255
[Huawei-ospf-1-area-0.0.0.0]network 172.16.2.0 0.0.0.255
[Huawei-ospf-1-area-0.0.0.0]network 10.0.0.0 0.0.0.3

- Повторить настройку на R2 (ID 2.2.2.2)

- если будет получено сообщение о необходимости перезапустить OSPF процесс - выполнить перезапуск.
<Huawei>reset ospf 1 process

7. Просмотреть на R2 таблицу маршрутизации, убедиться, что все сети магистральной зоны там присутствуют.
- обратить внимание на маску, с которой в таблице маршрутизации присутствуют сети, назначенные на петлевых 
интерфейсах AR1

8. добавить к сети хаб и присоединить его к интерфейсу Ge0/0/1 маршрутизатора AR1 (рис.Lab_07_1_1).
- присвоить Ge0/0/1 адрес 172.16.3.1/24 и объявить эту сеть принадлежащей области 0 процесса OSPF 1.

9. Повторить п.7, обратить внимание на маску сети 172.16.3.0/24 и метрику (cost)

10. Убедиться в достижении полной связности сети.

11. Выполнить просмотр состояния OSPF:

display ospf brief

- На AR1 обратить внимание на типы сетей, связанных с петлевыми и Ethernet интерфейсами и наличие DR/BDR

display ospf peer
display ospf interface
display ospf routing

- обратить внимание на зоны и тип сетей в выводе последней команды






7.2
2. Создать 3 петлевых интерфейса на AR2 и назначить им адреса, указанные на рисунке.

3. Добавить 3 использованные сети к OSPF процессу как принадлежащие зоне 1 (номер процесса остается прежним).

4. Убедиться в том, что маршрутная информация распространилась на AR1 и оба маршрутизатора имеют информацию 
о всех сетях топологии.

5. Назначить указанные на рисунке адреса интерфейсам маршрутизаторов AR3 и AR4, присвоить им идентификаторы 
3.3.3.3 и 4.4.4.4

6. Добавить на AR2 и AR3 сеть 10.0.0.4/30 к OSPF процессу как принадлежащую зоне 2 (номер процесса остается 
прежним). Сеть 10.0.0.8/30 НЕ АНОНСИРОВАТЬ.

7. Убедиться в том, что маршрутная информация о сети 10.0.0.4/30 распространилась на AR1 и AR2 и все 
маршрутизаторы имеют информацию о всех (на данный момент настроенных) сетях топологии.

8. Выполнить просмотр таблицы маршрутизации на AR2 и AR3.
- также выполнить просмотр состояния ospf:
display ospf routing

- обратить внимание на тип маршрутов (появились межзоновые)

9. Сделать зону 2 тупиковой (выполняется на AR2 и AR3):
[Huawei-ospf-1-area-0.0.0.2]stub 

10. Повторить пункт 8.
- что изменилось в таблице маршрутизации?

11. Сделать зону 2 полностью тупиковой (выполняется на AR2 и AR3):
[Huawei-ospf-1-area-0.0.0.2]stub no-summary

12. Повторить пункт 8.
- что изменилось в таблице маршрутизации?

13. Сравнить содержимое таблиц маршрутизации, полученных в пунктах 8,10,12.

14. Восстановить тип зоны 2 на обычный.
- Выполнить просмотр ospf-маршрутов на AR2:
display ospf routing

15. Настроить виртуальный линк между AR2 и AR3:
[Huawei-ospf-1-area-0.0.0.2]vlink-peer 3.3.3.3 (на AR2)
[Huawei-ospf-1-area-0.0.0.2]vlink-peer 2.2.2.2 (на AR3)

- обратите внимание - ВИРТУАЛЬНЫЕ ЛИНКИ НЕ МОГУТ ПРОХОДИТЬ ЧЕРЕЗ ТУПИКОВЫЕ ЗОНЫ

16. Выполнить просмотр ospf-маршрутов на AR2:
display ospf routing

- что изменилость?

17. Назначить интерфейсам маршрутизатора AR4 адреса, указанные на рисунке. Присвоить маршрутизатору AR4 ID 4.4.4.4

18. Добавить сети 10.0.0.8/30, 192.168.0.0/24 и 192.168.1.0/24 к ospf процессам на AR3 и AR4 как принадлежащие зоне 3

19. Убедиться в наличии на всех маршрутизаторах в маршрутных таблицах полного набора сетей.

20. На AR3 и AR4 удалить сети 10.0.0.8/30, 192.168.0.0/24 и 192.168.1.0/24 как принадлежащие зоне 3

21. Добавить сети 10.0.0.8/30, 192.168.0.0/24 и 192.168.1.0/24 к ospf процессам на R3 и R4 как принадлежащие зоне 0

22. Убедиться, что к зоне 0 теперь относятся все 4 маршрутизатора
display ospf routing (на AR1)




7.3 7.3 7.3 7.3 7.3 7.3 7.3


2. На AR3 и AR4 удалить сети 10.0.0.8/30, 192.168.0.0/24 и 192.168.1.0/24 как принадлежащие зоне 0

3. Добавить сеть 10.0.0.8/30 к ospf процессам на AR3 и AR4 как принадлежащую зоне 3

4. Тип зоны 3 на маршрутизаторах AR3 и AR4 объявить как NSSA:
[Huawei-ospf-1-area-0.0.0.3]nssa

5. Cети 192.168.0.0/24 и 192.168.1.0/24 на R4 аннонсировать в OSPF как внешние типа 1:
[Huawei-ospf-1]import-route direct

6. Убедиться, что на соседних маршрутизаторах (AR1, AR2, AR3) сети появились (display ip routing-table).
- какого типа метка протокола в таблице маршрутизации? O-NSSA, O-ASE
- какое AD(Preference)?

7. Проверить тип маршрутов и способ подсчета метрики для внешних маршрутов на (AR1, AR2, AR3)
type2
display ospf routing

- как меняется тип маршрутов от AR4 к AR1?
- каков способ подсчета метрики внешних маршрутов? ## всегда 1?
- как меняется метрика? никак, 1

8. Создать на AR4 статический маршрут:
ip route-static 20.0.0.0 24 Loopback0 

9. Статический маршрут добавить в OSPF как внешний типа 2:
[Huawei-ospf-1]import-route static type 2

10. Повторить п.6

11. Повторить п.7

12. Cменить тип зоны 3 на Totally NSSA (nssa no-summary) и пронаблюдать изменения. 

8.2 8.2 8.2 8.2 8.2 8.2 8.2



2. Настроить адреса интерфейсам Ge0/0/0 маршрутизаторов (направленных навстречу друг к другу).
Сеть - 3100::/64

3. Убедиться, что пакеты между маршрутизаторами проходят.

4. На AR1 создать 3 петлевых (loopback) интерфейса
и присвоить им адреса (обратите внимание, они принадлежат разным сетям):
loopback1 3201::1/64
loopback2 3202::1/64
loopback3 3203::1/64

5.  На AR2 создать 3 петлевых (loopback) интерфейса
и присвоить им адреса (обратите внимание, они принадлежат разным сетям):
loopback1 3301::1/64
loopback2 3302::1/64
loopback3 3303::1/64

6. Просмотреть таблицу маршрутизации на каждом маршрутизаторе и убедиться, что сети, 
соответствующие всем интерфейсам маршрутизатора (включая петлевые), присутствуют в таблице 
маршрутизации и обозначены как присоединенные.

7. На AR1:
- создать OSPFv3 процесс: (1 здесь - номер процесса маршрутизации)
[Huawei]ospfv3 1 

- настроить Router-ID:
[Huawei-ospfv3-1]router-id 2.2.2.2

- указать интерфейсы для работы с OSPFv3 (1 - номер процесса маршрутизации. Интерфейсы, 
связанные с разными процессами маршрутизации не смешивают маршрутную информацию):
[Huawei-GigabitEthernet0/0/0]ospfv3 1 area 0
[Huawei-LoopBack1]ospfv3 1 area 0
[Huawei-LoopBack2]ospfv3 1 area 0
[Huawei-LoopBack3]ospfv3 1 area 0

8. Повторить пункт 7 на маршрутизаторе R2, анонсируя все его присоединенные сети.

9. Выполнить просмотр таблиц маршрутизации на маршрутизаторах.
- Убедиться, что в ней присутствую все использованные в упражнении сети.
- Сети полученные от соседнего маршрутизатора с использованием протокола OSPF, соответствующим образом отмечены. 
- Обратить внимание на Preference и Protocol сетей, информация о которых получена от соседнего маршрутизатора.

10. Выполнить просмотр информации процесса OSPF:
display ipv6 routing-table protocol ospfv3

- обратить внимание на сети с пометкой "неактивные"
- почему они неактивны?

display ospfv3 interface
display ospfv3 topology
display ospfv3 peer
display ospfv3 next-hop


8.3 8.3 8.3 8.3 8.3 8.3 8.3


1. Используется топология прошлого задания.

2. На AR2 включить еще один loopback интерфейс и назначить ему адрес 3500::1/64

3. Добавить новый loopback интерфейс к уже существующему OSPF процессу (1) как принадлежащий зоне 2

4. на AR1 выполнить просмотр таблицы маршрутизации.
display ipv6 routing-table

display ospfv3 1 routing 

- обратить внимание на метку у сети 3500::/64

5. выполнить просмотр lsdb:
display ospfv3 lsdb intra-prefix
display ospfv3 lsdb inter-prefix





8.4 8.4 8.4 8.4 8.4 8.4 8.4 8.4




2. Назначить интерфейсам маршрутизаторов и Loopback адаптерам указанные на схеме адреса

3. На AR1 и интерфейсе Ge0/0/0 AR4 настроить RIP:
- Сеть 172.16.0.0/24 в RIP анонсируется
- На AR4 в RIP анонсируется только 192.168.0.0/24 сеть

4. На AR3 и интерфейсе Ge0/0/0 AR4 настроить OSPF:
- Единственная зона - магистральная
- Сеть 172.16.1.0/24 в OSPF анонсируется
- На AR4 в OSPF анонсируется только 192.168.1.0/24 сеть

5. на АR3 задать маршрут по умолчанию через АR4.

6. На АR4 задать статический маршрут до сети 172.16.2.0/24 через АR3.

7. Проверить в таблице маршрутизации АR4 наличие всех сетей:
- 3 присоединенных
- по 1 из OSPF/RIP процессов
- 1 статический маршрут
- обратить внимание на маски сетей 172.16.Х.0/М в таблице маршрутизации
- почему они такие?
- обратить внимание на Preference/AD сетей 172.16.Х.0/М в таблице маршрутизации
- почему они такие?

8. Проверить с AR4 прохождение пакетов до всех сетей 172.16.Х.0/24

9. На AR4 настроить импорт в процесс RIP статических маршрутов и маршрутов из OSPF, 
с указанной метрикой:
[Huawei-rip-1]import-route static cost 2
[Huawei-rip-1]import-route ospf 1 cost 2

10. проверить с AR1 доступность сетей 172.16.[1-2].0/24
- успешно?
- почему получен такой результат?

11. проверить с AR1 доступность адресов 192.168.[1-2].[1-2]/24
- успешно?
- почему получен такой результат?
- исправить проблему с доступностью сети 192.168.2.0/24 (на AR4)

12. Аналогичным п.9 образом передать в процесс OSPF недостающую маршрутную информацию
- импорт маршрутов выполняется в контексте настройки OSPF, а не его зон
- использовать cost 10

13. Проверить наличие импортированных маршрутов на AR2
- какое значение Preference/AD используется?
- почему?
- каков тип протокола в таблице маршрутизации?

14. Убедиться, что:
- на всех маршрутизаторах (кроме AR3), в таблицах маршрутизации присутствуют все сети
- с AR1 и AR2 доступны адреса 192.168.2.2 и 172.16.2.1
- почему они доступны, если на АR3 нет специфичных маршрутов до 192.168.[0-1].0/24?


8.5 8.5 8.5 8.5 8.5 8.5 8.5





2. Назначить интерфейсам маршрутизаторов и Loopback адаптерам указанные на схеме адреса

3. На AR1 и интерфейсе Ge0/0/0 AR4 настроить RIP:
- Сеть 3000::/64 в RIP анонсируется
- На AR4 в RIP анонсируется только 2000::/64 сеть

4. На AR3 и интерфейсе Ge0/0/0 AR4 настроить OSPF:
- Единственная зона - магистральная
- Сеть 3001::/64 в OSPF анонсируется
- На AR4 в OSPF анонсируется только 2001::/64 сеть

5. на АR3 задать маршрут по умолчанию через АR4.

6. На АR4 задать статический маршрут до сети 3002::/64 через АR3

7. Проверить в таблице маршрутизации АR4 наличие всех сетей:
- 3 присоединенных
- по 1 из OSPF/RIP процессов
- 1 статический маршрут
- обратить внимание на маски сетей 300X::/M в таблице маршрутизации
- почему они такие?
- обратить внимание на Preference/AD сетей 3000X::/М в таблице маршрутизации
- почему они такие?

8. Проверить с AR4 прохождение пакетов до всех сетей 3000X::/64

9. На AR4 настроить импорт в процесс RIP статических маршрутов и маршрутов из OSPF, 
с указанной метрикой:
[Huawei-ripng-1]import-route direct cost 2
[Huawei-ripng-1]import-route static cost 2
[Huawei-ripng-1]import-route ospfv3 1 cost 2

10. Аналогичным п.9 образом передать в процесс OSPF недостающую маршрутную информацию
- импорт маршрутов выполняется в контексте настройки OSPF, а не его зон
- использовать cost 10

11. Убедиться, что:
- на всех маршрутизаторах (кроме AR3), в таблицах маршрутизации присутствуют все сети
- достигнута полная связность


R1 
#
interface GigabitEthernet0/0/0
 ip address 192.168.0.113 255.255.255.248 
#
interface GigabitEthernet0/0/1
 ip address 192.168.0.106 255.255.255.248 
#
ip route-static 0.0.0.0 0.0.0.0 192.168.0.114
ip route-static 192.168.0.96 255.255.255.248 192.168.0.114
#

R2

#
interface GigabitEthernet0/0/0
 ip address 192.168.0.114 255.255.255.248 
#
interface GigabitEthernet0/0/1
 ip address 192.168.0.97 255.255.255.248 
#
ip route-static 0.0.0.0 0.0.0.0 192.168.0.98
ip route-static 192.168.0.104 255.255.255.248 192.168.0.98
#



R3


interface GigabitEthernet0/0/0
 ip address 192.168.0.105 255.255.255.248 
#
interface GigabitEthernet0/0/1
 ip address 192.168.0.98 255.255.255.248 
#
interface GigabitEthernet0/0/2
 ip address 192.168.0.33 255.255.255.224 
#
interface LoopBack0
 ip address 192.168.0.65 255.255.255.224 
#
ospf 1 
 import-route direct cost 2
 import-route static cost 2
 area 0.0.0.0 
  network 192.168.0.32 0.0.0.31 
  network 192.168.0.64 0.0.0.31 
#
ip route-static 192.168.0.112 255.255.255.248 192.168.0.106
#

R4

interface GigabitEthernet0/0/0
 ip address 192.168.0.34 255.255.255.224 
#
interface GigabitEthernet0/0/1
 ip address 192.168.0.1 255.255.255.252 
#
interface GigabitEthernet0/0/2
 ip address 192.168.0.5 255.255.255.252 
#
ospf 1 
 import-route direct cost 2
 import-route rip 1 cost 10
 area 0.0.0.0 
  network 192.168.0.32 0.0.0.31 
#
rip 1
 version 2
 network 192.168.0.0
 import-route direct cost 2
 import-route ospf 1 cost 2
#

R5

interface GigabitEthernet0/0/0
 ip address 192.168.0.2 255.255.255.252 
#
interface GigabitEthernet0/0/1
 ip address 192.168.0.129 255.255.255.128 
 vrrp vrid 1 virtual-ip 192.168.0.129
#
rip 1
 version 2
 network 192.168.0.0
#

R6


#
interface GigabitEthernet0/0/0
 ip address 192.168.0.6 255.255.255.252 
#
interface GigabitEthernet0/0/1
 ip address 192.168.0.130 255.255.255.128 
 vrrp vrid 1 virtual-ip 192.168.0.129
#
rip 1
 version 2
 network 192.168.0.0
#